<svg xmlns="http://www.w3.org/2000/svg" width="350" height="350" viewBox="0 0 350 350">
  <circle id="Ellipse_3106" data-name="Ellipse 3106" cx="175" cy="175" r="175" fill="rgba(0,218,255,0.22)" style="mix-blend-mode: multiply;isolation: isolate"/>
</svg>
