<svg xmlns="http://www.w3.org/2000/svg" xmlns:xlink="http://www.w3.org/1999/xlink" width="283" height="395" viewBox="0 0 283 395">
  <defs>
    <clipPath id="clip-path">
      <rect width="283" height="395" fill="none"/>
    </clipPath>
  </defs>
  <g id="Repeat_Grid_40" data-name="Repeat Grid 40" clip-path="url(#clip-path)" style="isolation: isolate">
    <g transform="translate(-1389 -1640)">
      <circle id="Ellipse_3073" data-name="Ellipse 3073" cx="4.5" cy="4.5" r="4.5" transform="translate(1389 1640)" fill="#00daff"/>
    </g>
    <g transform="translate(-1360 -1640)">
      <circle id="Ellipse_3073-2" data-name="Ellipse 3073" cx="4.5" cy="4.5" r="4.5" transform="translate(1389 1640)" fill="#00daff"/>
    </g>
    <g transform="translate(-1331 -1640)">
      <circle id="Ellipse_3073-3" data-name="Ellipse 3073" cx="4.5" cy="4.5" r="4.5" transform="translate(1389 1640)" fill="#00daff"/>
    </g>
    <g transform="translate(-1302 -1640)">
      <circle id="Ellipse_3073-4" data-name="Ellipse 3073" cx="4.5" cy="4.5" r="4.5" transform="translate(1389 1640)" fill="#00daff"/>
    </g>
    <g transform="translate(-1273 -1640)">
      <circle id="Ellipse_3073-5" data-name="Ellipse 3073" cx="4.5" cy="4.5" r="4.5" transform="translate(1389 1640)" fill="#00daff"/>
    </g>
    <g transform="translate(-1244 -1640)">
      <circle id="Ellipse_3073-6" data-name="Ellipse 3073" cx="4.5" cy="4.5" r="4.5" transform="translate(1389 1640)" fill="#00daff"/>
    </g>
    <g transform="translate(-1215 -1640)">
      <circle id="Ellipse_3073-7" data-name="Ellipse 3073" cx="4.5" cy="4.5" r="4.5" transform="translate(1389 1640)" fill="#00daff"/>
    </g>
    <g transform="translate(-1186 -1640)">
      <circle id="Ellipse_3073-8" data-name="Ellipse 3073" cx="4.5" cy="4.5" r="4.5" transform="translate(1389 1640)" fill="#00daff"/>
    </g>
    <g transform="translate(-1157 -1640)">
      <circle id="Ellipse_3073-9" data-name="Ellipse 3073" cx="4.5" cy="4.5" r="4.5" transform="translate(1389 1640)" fill="#00daff"/>
    </g>
    <g transform="translate(-1128 -1640)">
      <circle id="Ellipse_3073-10" data-name="Ellipse 3073" cx="4.5" cy="4.5" r="4.5" transform="translate(1389 1640)" fill="#00daff"/>
    </g>
    <g transform="translate(-1389 -1611)">
      <circle id="Ellipse_3073-11" data-name="Ellipse 3073" cx="4.5" cy="4.5" r="4.5" transform="translate(1389 1640)" fill="#00daff"/>
    </g>
    <g transform="translate(-1360 -1611)">
      <circle id="Ellipse_3073-12" data-name="Ellipse 3073" cx="4.5" cy="4.5" r="4.5" transform="translate(1389 1640)" fill="#00daff"/>
    </g>
    <g transform="translate(-1331 -1611)">
      <circle id="Ellipse_3073-13" data-name="Ellipse 3073" cx="4.5" cy="4.5" r="4.5" transform="translate(1389 1640)" fill="#00daff"/>
    </g>
    <g transform="translate(-1302 -1611)">
      <circle id="Ellipse_3073-14" data-name="Ellipse 3073" cx="4.5" cy="4.5" r="4.5" transform="translate(1389 1640)" fill="#00daff"/>
    </g>
    <g transform="translate(-1273 -1611)">
      <circle id="Ellipse_3073-15" data-name="Ellipse 3073" cx="4.5" cy="4.5" r="4.5" transform="translate(1389 1640)" fill="#00daff"/>
    </g>
    <g transform="translate(-1244 -1611)">
      <circle id="Ellipse_3073-16" data-name="Ellipse 3073" cx="4.5" cy="4.5" r="4.5" transform="translate(1389 1640)" fill="#00daff"/>
    </g>
    <g transform="translate(-1215 -1611)">
      <circle id="Ellipse_3073-17" data-name="Ellipse 3073" cx="4.5" cy="4.5" r="4.5" transform="translate(1389 1640)" fill="#00daff"/>
    </g>
    <g transform="translate(-1186 -1611)">
      <circle id="Ellipse_3073-18" data-name="Ellipse 3073" cx="4.5" cy="4.5" r="4.5" transform="translate(1389 1640)" fill="#00daff"/>
    </g>
    <g transform="translate(-1157 -1611)">
      <circle id="Ellipse_3073-19" data-name="Ellipse 3073" cx="4.5" cy="4.5" r="4.5" transform="translate(1389 1640)" fill="#00daff"/>
    </g>
    <g transform="translate(-1128 -1611)">
      <circle id="Ellipse_3073-20" data-name="Ellipse 3073" cx="4.5" cy="4.5" r="4.5" transform="translate(1389 1640)" fill="#00daff"/>
    </g>
    <g transform="translate(-1389 -1582)">
      <circle id="Ellipse_3073-21" data-name="Ellipse 3073" cx="4.5" cy="4.5" r="4.5" transform="translate(1389 1640)" fill="#00daff"/>
    </g>
    <g transform="translate(-1360 -1582)">
      <circle id="Ellipse_3073-22" data-name="Ellipse 3073" cx="4.5" cy="4.5" r="4.5" transform="translate(1389 1640)" fill="#00daff"/>
    </g>
    <g transform="translate(-1331 -1582)">
      <circle id="Ellipse_3073-23" data-name="Ellipse 3073" cx="4.5" cy="4.5" r="4.5" transform="translate(1389 1640)" fill="#00daff"/>
    </g>
    <g transform="translate(-1302 -1582)">
      <circle id="Ellipse_3073-24" data-name="Ellipse 3073" cx="4.5" cy="4.5" r="4.5" transform="translate(1389 1640)" fill="#00daff"/>
    </g>
    <g transform="translate(-1273 -1582)">
      <circle id="Ellipse_3073-25" data-name="Ellipse 3073" cx="4.5" cy="4.5" r="4.5" transform="translate(1389 1640)" fill="#00daff"/>
    </g>
    <g transform="translate(-1244 -1582)">
      <circle id="Ellipse_3073-26" data-name="Ellipse 3073" cx="4.5" cy="4.5" r="4.5" transform="translate(1389 1640)" fill="#00daff"/>
    </g>
    <g transform="translate(-1215 -1582)">
      <circle id="Ellipse_3073-27" data-name="Ellipse 3073" cx="4.5" cy="4.5" r="4.5" transform="translate(1389 1640)" fill="#00daff"/>
    </g>
    <g transform="translate(-1186 -1582)">
      <circle id="Ellipse_3073-28" data-name="Ellipse 3073" cx="4.5" cy="4.5" r="4.5" transform="translate(1389 1640)" fill="#00daff"/>
    </g>
    <g transform="translate(-1157 -1582)">
      <circle id="Ellipse_3073-29" data-name="Ellipse 3073" cx="4.5" cy="4.5" r="4.5" transform="translate(1389 1640)" fill="#00daff"/>
    </g>
    <g transform="translate(-1128 -1582)">
      <circle id="Ellipse_3073-30" data-name="Ellipse 3073" cx="4.5" cy="4.5" r="4.5" transform="translate(1389 1640)" fill="#00daff"/>
    </g>
    <g transform="translate(-1389 -1553)">
      <circle id="Ellipse_3073-31" data-name="Ellipse 3073" cx="4.5" cy="4.5" r="4.5" transform="translate(1389 1640)" fill="#00daff"/>
    </g>
    <g transform="translate(-1360 -1553)">
      <circle id="Ellipse_3073-32" data-name="Ellipse 3073" cx="4.5" cy="4.5" r="4.5" transform="translate(1389 1640)" fill="#00daff"/>
    </g>
    <g transform="translate(-1331 -1553)">
      <circle id="Ellipse_3073-33" data-name="Ellipse 3073" cx="4.5" cy="4.5" r="4.5" transform="translate(1389 1640)" fill="#00daff"/>
    </g>
    <g transform="translate(-1302 -1553)">
      <circle id="Ellipse_3073-34" data-name="Ellipse 3073" cx="4.5" cy="4.5" r="4.5" transform="translate(1389 1640)" fill="#00daff"/>
    </g>
    <g transform="translate(-1273 -1553)">
      <circle id="Ellipse_3073-35" data-name="Ellipse 3073" cx="4.5" cy="4.5" r="4.5" transform="translate(1389 1640)" fill="#00daff"/>
    </g>
    <g transform="translate(-1244 -1553)">
      <circle id="Ellipse_3073-36" data-name="Ellipse 3073" cx="4.5" cy="4.5" r="4.5" transform="translate(1389 1640)" fill="#00daff"/>
    </g>
    <g transform="translate(-1215 -1553)">
      <circle id="Ellipse_3073-37" data-name="Ellipse 3073" cx="4.5" cy="4.5" r="4.5" transform="translate(1389 1640)" fill="#00daff"/>
    </g>
    <g transform="translate(-1186 -1553)">
      <circle id="Ellipse_3073-38" data-name="Ellipse 3073" cx="4.5" cy="4.5" r="4.5" transform="translate(1389 1640)" fill="#00daff"/>
    </g>
    <g transform="translate(-1157 -1553)">
      <circle id="Ellipse_3073-39" data-name="Ellipse 3073" cx="4.5" cy="4.5" r="4.5" transform="translate(1389 1640)" fill="#00daff"/>
    </g>
    <g transform="translate(-1128 -1553)">
      <circle id="Ellipse_3073-40" data-name="Ellipse 3073" cx="4.5" cy="4.5" r="4.5" transform="translate(1389 1640)" fill="#00daff"/>
    </g>
    <g transform="translate(-1389 -1524)">
      <circle id="Ellipse_3073-41" data-name="Ellipse 3073" cx="4.5" cy="4.5" r="4.5" transform="translate(1389 1640)" fill="#00daff"/>
    </g>
    <g transform="translate(-1360 -1524)">
      <circle id="Ellipse_3073-42" data-name="Ellipse 3073" cx="4.5" cy="4.5" r="4.5" transform="translate(1389 1640)" fill="#00daff"/>
    </g>
    <g transform="translate(-1331 -1524)">
      <circle id="Ellipse_3073-43" data-name="Ellipse 3073" cx="4.5" cy="4.5" r="4.5" transform="translate(1389 1640)" fill="#00daff"/>
    </g>
    <g transform="translate(-1302 -1524)">
      <circle id="Ellipse_3073-44" data-name="Ellipse 3073" cx="4.5" cy="4.5" r="4.5" transform="translate(1389 1640)" fill="#00daff"/>
    </g>
    <g transform="translate(-1273 -1524)">
      <circle id="Ellipse_3073-45" data-name="Ellipse 3073" cx="4.5" cy="4.5" r="4.5" transform="translate(1389 1640)" fill="#00daff"/>
    </g>
    <g transform="translate(-1244 -1524)">
      <circle id="Ellipse_3073-46" data-name="Ellipse 3073" cx="4.5" cy="4.5" r="4.5" transform="translate(1389 1640)" fill="#00daff"/>
    </g>
    <g transform="translate(-1215 -1524)">
      <circle id="Ellipse_3073-47" data-name="Ellipse 3073" cx="4.5" cy="4.5" r="4.5" transform="translate(1389 1640)" fill="#00daff"/>
    </g>
    <g transform="translate(-1186 -1524)">
      <circle id="Ellipse_3073-48" data-name="Ellipse 3073" cx="4.5" cy="4.5" r="4.5" transform="translate(1389 1640)" fill="#00daff"/>
    </g>
    <g transform="translate(-1157 -1524)">
      <circle id="Ellipse_3073-49" data-name="Ellipse 3073" cx="4.5" cy="4.5" r="4.5" transform="translate(1389 1640)" fill="#00daff"/>
    </g>
    <g transform="translate(-1128 -1524)">
      <circle id="Ellipse_3073-50" data-name="Ellipse 3073" cx="4.5" cy="4.5" r="4.5" transform="translate(1389 1640)" fill="#00daff"/>
    </g>
    <g transform="translate(-1389 -1495)">
      <circle id="Ellipse_3073-51" data-name="Ellipse 3073" cx="4.5" cy="4.5" r="4.5" transform="translate(1389 1640)" fill="#00daff"/>
    </g>
    <g transform="translate(-1360 -1495)">
      <circle id="Ellipse_3073-52" data-name="Ellipse 3073" cx="4.5" cy="4.5" r="4.5" transform="translate(1389 1640)" fill="#00daff"/>
    </g>
    <g transform="translate(-1331 -1495)">
      <circle id="Ellipse_3073-53" data-name="Ellipse 3073" cx="4.5" cy="4.5" r="4.5" transform="translate(1389 1640)" fill="#00daff"/>
    </g>
    <g transform="translate(-1302 -1495)">
      <circle id="Ellipse_3073-54" data-name="Ellipse 3073" cx="4.5" cy="4.5" r="4.5" transform="translate(1389 1640)" fill="#00daff"/>
    </g>
    <g transform="translate(-1273 -1495)">
      <circle id="Ellipse_3073-55" data-name="Ellipse 3073" cx="4.5" cy="4.5" r="4.5" transform="translate(1389 1640)" fill="#00daff"/>
    </g>
    <g transform="translate(-1244 -1495)">
      <circle id="Ellipse_3073-56" data-name="Ellipse 3073" cx="4.5" cy="4.5" r="4.5" transform="translate(1389 1640)" fill="#00daff"/>
    </g>
    <g transform="translate(-1215 -1495)">
      <circle id="Ellipse_3073-57" data-name="Ellipse 3073" cx="4.5" cy="4.5" r="4.5" transform="translate(1389 1640)" fill="#00daff"/>
    </g>
    <g transform="translate(-1186 -1495)">
      <circle id="Ellipse_3073-58" data-name="Ellipse 3073" cx="4.5" cy="4.5" r="4.5" transform="translate(1389 1640)" fill="#00daff"/>
    </g>
    <g transform="translate(-1157 -1495)">
      <circle id="Ellipse_3073-59" data-name="Ellipse 3073" cx="4.5" cy="4.5" r="4.5" transform="translate(1389 1640)" fill="#00daff"/>
    </g>
    <g transform="translate(-1128 -1495)">
      <circle id="Ellipse_3073-60" data-name="Ellipse 3073" cx="4.5" cy="4.5" r="4.5" transform="translate(1389 1640)" fill="#00daff"/>
    </g>
    <g transform="translate(-1389 -1466)">
      <circle id="Ellipse_3073-61" data-name="Ellipse 3073" cx="4.5" cy="4.5" r="4.5" transform="translate(1389 1640)" fill="#00daff"/>
    </g>
    <g transform="translate(-1360 -1466)">
      <circle id="Ellipse_3073-62" data-name="Ellipse 3073" cx="4.5" cy="4.5" r="4.5" transform="translate(1389 1640)" fill="#00daff"/>
    </g>
    <g transform="translate(-1331 -1466)">
      <circle id="Ellipse_3073-63" data-name="Ellipse 3073" cx="4.5" cy="4.5" r="4.5" transform="translate(1389 1640)" fill="#00daff"/>
    </g>
    <g transform="translate(-1302 -1466)">
      <circle id="Ellipse_3073-64" data-name="Ellipse 3073" cx="4.5" cy="4.5" r="4.5" transform="translate(1389 1640)" fill="#00daff"/>
    </g>
    <g transform="translate(-1273 -1466)">
      <circle id="Ellipse_3073-65" data-name="Ellipse 3073" cx="4.5" cy="4.5" r="4.5" transform="translate(1389 1640)" fill="#00daff"/>
    </g>
    <g transform="translate(-1244 -1466)">
      <circle id="Ellipse_3073-66" data-name="Ellipse 3073" cx="4.5" cy="4.5" r="4.5" transform="translate(1389 1640)" fill="#00daff"/>
    </g>
    <g transform="translate(-1215 -1466)">
      <circle id="Ellipse_3073-67" data-name="Ellipse 3073" cx="4.5" cy="4.5" r="4.5" transform="translate(1389 1640)" fill="#00daff"/>
    </g>
    <g transform="translate(-1186 -1466)">
      <circle id="Ellipse_3073-68" data-name="Ellipse 3073" cx="4.5" cy="4.5" r="4.5" transform="translate(1389 1640)" fill="#00daff"/>
    </g>
    <g transform="translate(-1157 -1466)">
      <circle id="Ellipse_3073-69" data-name="Ellipse 3073" cx="4.5" cy="4.5" r="4.5" transform="translate(1389 1640)" fill="#00daff"/>
    </g>
    <g transform="translate(-1128 -1466)">
      <circle id="Ellipse_3073-70" data-name="Ellipse 3073" cx="4.5" cy="4.5" r="4.5" transform="translate(1389 1640)" fill="#00daff"/>
    </g>
    <g transform="translate(-1389 -1437)">
      <circle id="Ellipse_3073-71" data-name="Ellipse 3073" cx="4.5" cy="4.5" r="4.5" transform="translate(1389 1640)" fill="#00daff"/>
    </g>
    <g transform="translate(-1360 -1437)">
      <circle id="Ellipse_3073-72" data-name="Ellipse 3073" cx="4.5" cy="4.5" r="4.5" transform="translate(1389 1640)" fill="#00daff"/>
    </g>
    <g transform="translate(-1331 -1437)">
      <circle id="Ellipse_3073-73" data-name="Ellipse 3073" cx="4.5" cy="4.5" r="4.5" transform="translate(1389 1640)" fill="#00daff"/>
    </g>
    <g transform="translate(-1302 -1437)">
      <circle id="Ellipse_3073-74" data-name="Ellipse 3073" cx="4.5" cy="4.5" r="4.5" transform="translate(1389 1640)" fill="#00daff"/>
    </g>
    <g transform="translate(-1273 -1437)">
      <circle id="Ellipse_3073-75" data-name="Ellipse 3073" cx="4.5" cy="4.5" r="4.5" transform="translate(1389 1640)" fill="#00daff"/>
    </g>
    <g transform="translate(-1244 -1437)">
      <circle id="Ellipse_3073-76" data-name="Ellipse 3073" cx="4.5" cy="4.5" r="4.5" transform="translate(1389 1640)" fill="#00daff"/>
    </g>
    <g transform="translate(-1215 -1437)">
      <circle id="Ellipse_3073-77" data-name="Ellipse 3073" cx="4.5" cy="4.5" r="4.5" transform="translate(1389 1640)" fill="#00daff"/>
    </g>
    <g transform="translate(-1186 -1437)">
      <circle id="Ellipse_3073-78" data-name="Ellipse 3073" cx="4.5" cy="4.5" r="4.5" transform="translate(1389 1640)" fill="#00daff"/>
    </g>
    <g transform="translate(-1157 -1437)">
      <circle id="Ellipse_3073-79" data-name="Ellipse 3073" cx="4.5" cy="4.5" r="4.5" transform="translate(1389 1640)" fill="#00daff"/>
    </g>
    <g transform="translate(-1128 -1437)">
      <circle id="Ellipse_3073-80" data-name="Ellipse 3073" cx="4.5" cy="4.5" r="4.5" transform="translate(1389 1640)" fill="#00daff"/>
    </g>
    <g transform="translate(-1389 -1408)">
      <circle id="Ellipse_3073-81" data-name="Ellipse 3073" cx="4.5" cy="4.5" r="4.5" transform="translate(1389 1640)" fill="#00daff"/>
    </g>
    <g transform="translate(-1360 -1408)">
      <circle id="Ellipse_3073-82" data-name="Ellipse 3073" cx="4.5" cy="4.5" r="4.5" transform="translate(1389 1640)" fill="#00daff"/>
    </g>
    <g transform="translate(-1331 -1408)">
      <circle id="Ellipse_3073-83" data-name="Ellipse 3073" cx="4.5" cy="4.5" r="4.5" transform="translate(1389 1640)" fill="#00daff"/>
    </g>
    <g transform="translate(-1302 -1408)">
      <circle id="Ellipse_3073-84" data-name="Ellipse 3073" cx="4.5" cy="4.5" r="4.5" transform="translate(1389 1640)" fill="#00daff"/>
    </g>
    <g transform="translate(-1273 -1408)">
      <circle id="Ellipse_3073-85" data-name="Ellipse 3073" cx="4.5" cy="4.5" r="4.5" transform="translate(1389 1640)" fill="#00daff"/>
    </g>
    <g transform="translate(-1244 -1408)">
      <circle id="Ellipse_3073-86" data-name="Ellipse 3073" cx="4.5" cy="4.5" r="4.5" transform="translate(1389 1640)" fill="#00daff"/>
    </g>
    <g transform="translate(-1215 -1408)">
      <circle id="Ellipse_3073-87" data-name="Ellipse 3073" cx="4.5" cy="4.5" r="4.5" transform="translate(1389 1640)" fill="#00daff"/>
    </g>
    <g transform="translate(-1186 -1408)">
      <circle id="Ellipse_3073-88" data-name="Ellipse 3073" cx="4.5" cy="4.5" r="4.5" transform="translate(1389 1640)" fill="#00daff"/>
    </g>
    <g transform="translate(-1157 -1408)">
      <circle id="Ellipse_3073-89" data-name="Ellipse 3073" cx="4.5" cy="4.5" r="4.5" transform="translate(1389 1640)" fill="#00daff"/>
    </g>
    <g transform="translate(-1128 -1408)">
      <circle id="Ellipse_3073-90" data-name="Ellipse 3073" cx="4.5" cy="4.5" r="4.5" transform="translate(1389 1640)" fill="#00daff"/>
    </g>
    <g transform="translate(-1389 -1379)">
      <circle id="Ellipse_3073-91" data-name="Ellipse 3073" cx="4.5" cy="4.5" r="4.5" transform="translate(1389 1640)" fill="#00daff"/>
    </g>
    <g transform="translate(-1360 -1379)">
      <circle id="Ellipse_3073-92" data-name="Ellipse 3073" cx="4.5" cy="4.5" r="4.5" transform="translate(1389 1640)" fill="#00daff"/>
    </g>
    <g transform="translate(-1331 -1379)">
      <circle id="Ellipse_3073-93" data-name="Ellipse 3073" cx="4.5" cy="4.5" r="4.5" transform="translate(1389 1640)" fill="#00daff"/>
    </g>
    <g transform="translate(-1302 -1379)">
      <circle id="Ellipse_3073-94" data-name="Ellipse 3073" cx="4.5" cy="4.5" r="4.5" transform="translate(1389 1640)" fill="#00daff"/>
    </g>
    <g transform="translate(-1273 -1379)">
      <circle id="Ellipse_3073-95" data-name="Ellipse 3073" cx="4.5" cy="4.5" r="4.5" transform="translate(1389 1640)" fill="#00daff"/>
    </g>
    <g transform="translate(-1244 -1379)">
      <circle id="Ellipse_3073-96" data-name="Ellipse 3073" cx="4.5" cy="4.5" r="4.5" transform="translate(1389 1640)" fill="#00daff"/>
    </g>
    <g transform="translate(-1215 -1379)">
      <circle id="Ellipse_3073-97" data-name="Ellipse 3073" cx="4.5" cy="4.5" r="4.5" transform="translate(1389 1640)" fill="#00daff"/>
    </g>
    <g transform="translate(-1186 -1379)">
      <circle id="Ellipse_3073-98" data-name="Ellipse 3073" cx="4.5" cy="4.5" r="4.5" transform="translate(1389 1640)" fill="#00daff"/>
    </g>
    <g transform="translate(-1157 -1379)">
      <circle id="Ellipse_3073-99" data-name="Ellipse 3073" cx="4.5" cy="4.5" r="4.5" transform="translate(1389 1640)" fill="#00daff"/>
    </g>
    <g transform="translate(-1128 -1379)">
      <circle id="Ellipse_3073-100" data-name="Ellipse 3073" cx="4.5" cy="4.5" r="4.5" transform="translate(1389 1640)" fill="#00daff"/>
    </g>
    <g transform="translate(-1389 -1350)">
      <circle id="Ellipse_3073-101" data-name="Ellipse 3073" cx="4.5" cy="4.5" r="4.5" transform="translate(1389 1640)" fill="#00daff"/>
    </g>
    <g transform="translate(-1360 -1350)">
      <circle id="Ellipse_3073-102" data-name="Ellipse 3073" cx="4.5" cy="4.5" r="4.5" transform="translate(1389 1640)" fill="#00daff"/>
    </g>
    <g transform="translate(-1331 -1350)">
      <circle id="Ellipse_3073-103" data-name="Ellipse 3073" cx="4.5" cy="4.5" r="4.5" transform="translate(1389 1640)" fill="#00daff"/>
    </g>
    <g transform="translate(-1302 -1350)">
      <circle id="Ellipse_3073-104" data-name="Ellipse 3073" cx="4.5" cy="4.5" r="4.5" transform="translate(1389 1640)" fill="#00daff"/>
    </g>
    <g transform="translate(-1273 -1350)">
      <circle id="Ellipse_3073-105" data-name="Ellipse 3073" cx="4.5" cy="4.5" r="4.5" transform="translate(1389 1640)" fill="#00daff"/>
    </g>
    <g transform="translate(-1244 -1350)">
      <circle id="Ellipse_3073-106" data-name="Ellipse 3073" cx="4.5" cy="4.5" r="4.5" transform="translate(1389 1640)" fill="#00daff"/>
    </g>
    <g transform="translate(-1215 -1350)">
      <circle id="Ellipse_3073-107" data-name="Ellipse 3073" cx="4.5" cy="4.5" r="4.5" transform="translate(1389 1640)" fill="#00daff"/>
    </g>
    <g transform="translate(-1186 -1350)">
      <circle id="Ellipse_3073-108" data-name="Ellipse 3073" cx="4.5" cy="4.5" r="4.5" transform="translate(1389 1640)" fill="#00daff"/>
    </g>
    <g transform="translate(-1157 -1350)">
      <circle id="Ellipse_3073-109" data-name="Ellipse 3073" cx="4.5" cy="4.5" r="4.5" transform="translate(1389 1640)" fill="#00daff"/>
    </g>
    <g transform="translate(-1128 -1350)">
      <circle id="Ellipse_3073-110" data-name="Ellipse 3073" cx="4.5" cy="4.5" r="4.5" transform="translate(1389 1640)" fill="#00daff"/>
    </g>
    <g transform="translate(-1389 -1321)">
      <circle id="Ellipse_3073-111" data-name="Ellipse 3073" cx="4.5" cy="4.5" r="4.5" transform="translate(1389 1640)" fill="#00daff"/>
    </g>
    <g transform="translate(-1360 -1321)">
      <circle id="Ellipse_3073-112" data-name="Ellipse 3073" cx="4.5" cy="4.5" r="4.5" transform="translate(1389 1640)" fill="#00daff"/>
    </g>
    <g transform="translate(-1331 -1321)">
      <circle id="Ellipse_3073-113" data-name="Ellipse 3073" cx="4.5" cy="4.5" r="4.5" transform="translate(1389 1640)" fill="#00daff"/>
    </g>
    <g transform="translate(-1302 -1321)">
      <circle id="Ellipse_3073-114" data-name="Ellipse 3073" cx="4.5" cy="4.5" r="4.5" transform="translate(1389 1640)" fill="#00daff"/>
    </g>
    <g transform="translate(-1273 -1321)">
      <circle id="Ellipse_3073-115" data-name="Ellipse 3073" cx="4.5" cy="4.5" r="4.5" transform="translate(1389 1640)" fill="#00daff"/>
    </g>
    <g transform="translate(-1244 -1321)">
      <circle id="Ellipse_3073-116" data-name="Ellipse 3073" cx="4.5" cy="4.5" r="4.5" transform="translate(1389 1640)" fill="#00daff"/>
    </g>
    <g transform="translate(-1215 -1321)">
      <circle id="Ellipse_3073-117" data-name="Ellipse 3073" cx="4.5" cy="4.5" r="4.5" transform="translate(1389 1640)" fill="#00daff"/>
    </g>
    <g transform="translate(-1186 -1321)">
      <circle id="Ellipse_3073-118" data-name="Ellipse 3073" cx="4.5" cy="4.5" r="4.5" transform="translate(1389 1640)" fill="#00daff"/>
    </g>
    <g transform="translate(-1157 -1321)">
      <circle id="Ellipse_3073-119" data-name="Ellipse 3073" cx="4.5" cy="4.5" r="4.5" transform="translate(1389 1640)" fill="#00daff"/>
    </g>
    <g transform="translate(-1128 -1321)">
      <circle id="Ellipse_3073-120" data-name="Ellipse 3073" cx="4.5" cy="4.5" r="4.5" transform="translate(1389 1640)" fill="#00daff"/>
    </g>
    <g transform="translate(-1389 -1292)">
      <circle id="Ellipse_3073-121" data-name="Ellipse 3073" cx="4.5" cy="4.5" r="4.5" transform="translate(1389 1640)" fill="#00daff"/>
    </g>
    <g transform="translate(-1360 -1292)">
      <circle id="Ellipse_3073-122" data-name="Ellipse 3073" cx="4.5" cy="4.5" r="4.5" transform="translate(1389 1640)" fill="#00daff"/>
    </g>
    <g transform="translate(-1331 -1292)">
      <circle id="Ellipse_3073-123" data-name="Ellipse 3073" cx="4.5" cy="4.5" r="4.5" transform="translate(1389 1640)" fill="#00daff"/>
    </g>
    <g transform="translate(-1302 -1292)">
      <circle id="Ellipse_3073-124" data-name="Ellipse 3073" cx="4.5" cy="4.5" r="4.5" transform="translate(1389 1640)" fill="#00daff"/>
    </g>
    <g transform="translate(-1273 -1292)">
      <circle id="Ellipse_3073-125" data-name="Ellipse 3073" cx="4.5" cy="4.5" r="4.5" transform="translate(1389 1640)" fill="#00daff"/>
    </g>
    <g transform="translate(-1244 -1292)">
      <circle id="Ellipse_3073-126" data-name="Ellipse 3073" cx="4.5" cy="4.5" r="4.5" transform="translate(1389 1640)" fill="#00daff"/>
    </g>
    <g transform="translate(-1215 -1292)">
      <circle id="Ellipse_3073-127" data-name="Ellipse 3073" cx="4.5" cy="4.5" r="4.5" transform="translate(1389 1640)" fill="#00daff"/>
    </g>
    <g transform="translate(-1186 -1292)">
      <circle id="Ellipse_3073-128" data-name="Ellipse 3073" cx="4.5" cy="4.5" r="4.5" transform="translate(1389 1640)" fill="#00daff"/>
    </g>
    <g transform="translate(-1157 -1292)">
      <circle id="Ellipse_3073-129" data-name="Ellipse 3073" cx="4.5" cy="4.5" r="4.5" transform="translate(1389 1640)" fill="#00daff"/>
    </g>
    <g transform="translate(-1128 -1292)">
      <circle id="Ellipse_3073-130" data-name="Ellipse 3073" cx="4.5" cy="4.5" r="4.5" transform="translate(1389 1640)" fill="#00daff"/>
    </g>
    <g transform="translate(-1389 -1263)">
      <circle id="Ellipse_3073-131" data-name="Ellipse 3073" cx="4.5" cy="4.5" r="4.5" transform="translate(1389 1640)" fill="#00daff"/>
    </g>
    <g transform="translate(-1360 -1263)">
      <circle id="Ellipse_3073-132" data-name="Ellipse 3073" cx="4.5" cy="4.5" r="4.5" transform="translate(1389 1640)" fill="#00daff"/>
    </g>
    <g transform="translate(-1331 -1263)">
      <circle id="Ellipse_3073-133" data-name="Ellipse 3073" cx="4.5" cy="4.5" r="4.5" transform="translate(1389 1640)" fill="#00daff"/>
    </g>
    <g transform="translate(-1302 -1263)">
      <circle id="Ellipse_3073-134" data-name="Ellipse 3073" cx="4.5" cy="4.5" r="4.5" transform="translate(1389 1640)" fill="#00daff"/>
    </g>
    <g transform="translate(-1273 -1263)">
      <circle id="Ellipse_3073-135" data-name="Ellipse 3073" cx="4.5" cy="4.5" r="4.5" transform="translate(1389 1640)" fill="#00daff"/>
    </g>
    <g transform="translate(-1244 -1263)">
      <circle id="Ellipse_3073-136" data-name="Ellipse 3073" cx="4.5" cy="4.5" r="4.5" transform="translate(1389 1640)" fill="#00daff"/>
    </g>
    <g transform="translate(-1215 -1263)">
      <circle id="Ellipse_3073-137" data-name="Ellipse 3073" cx="4.5" cy="4.5" r="4.5" transform="translate(1389 1640)" fill="#00daff"/>
    </g>
    <g transform="translate(-1186 -1263)">
      <circle id="Ellipse_3073-138" data-name="Ellipse 3073" cx="4.5" cy="4.5" r="4.5" transform="translate(1389 1640)" fill="#00daff"/>
    </g>
    <g transform="translate(-1157 -1263)">
      <circle id="Ellipse_3073-139" data-name="Ellipse 3073" cx="4.5" cy="4.5" r="4.5" transform="translate(1389 1640)" fill="#00daff"/>
    </g>
    <g transform="translate(-1128 -1263)">
      <circle id="Ellipse_3073-140" data-name="Ellipse 3073" cx="4.5" cy="4.5" r="4.5" transform="translate(1389 1640)" fill="#00daff"/>
    </g>
  </g>
</svg>
