<svg xmlns="http://www.w3.org/2000/svg" width="317.743" height="41.7" viewBox="0 0 317.743 41.7">
  <g id="Group_162" data-name="Group 162" transform="translate(-66.35 -214.965)">
    <path id="Path_373" data-name="Path 373" d="M120.894,215.808h27.892v8.424h-17.8v7.16H146.62v8.32H130.983V247.4h18.541v8.424h-28.63Z" fill="#2c5574"/>
    <path id="Path_374" data-name="Path 374" d="M165.071,234.92h2.907q6.971,0,6.971-5.633a4.956,4.956,0,0,0-1.69-4.133,8.252,8.252,0,0,0-5.176-1.343h-3.012Zm-10.142-19.112H169.4q7.395,0,11.543,3.606t4.147,9.925a12.3,12.3,0,0,1-1.586,6.134,11.871,11.871,0,0,1-4.49,4.5L189,255.823H177.38l-7.026-12.952h-.819q-.5,0-.951.026c-.3.019-.5.026-.606.026h-2.907v12.9H154.929Z" fill="#2c5574"/>
    <path id="Path_375" data-name="Path 375" d="M248.829,235.184h2.8q7.025,0,7.025-5.74a5.1,5.1,0,0,0-1.743-4.238,8.357,8.357,0,0,0-5.282-1.395h-2.8Zm-10.142-19.376h14.474q7.236,0,11.463,3.659a12.515,12.515,0,0,1,4.227,9.977q0,6.425-4.174,10.084t-11.569,3.659h-4.279v12.636H238.687Z" fill="#2c5574"/>
    <path id="Path_376" data-name="Path 376" d="M273.983,215.808h10.67v31.486h17.062v8.529H273.983Z" fill="#2c5574"/>
    <path id="Path_377" data-name="Path 377" d="M332.467,238.553l-4.6-13.636-4.6,13.636Zm-9.72-22.746h10.987l15.742,40.016H338.33l-3.117-9.215H320.58l-3.063,9.215H307.005Z" fill="#2c5574"/>
    <path id="Path_378" data-name="Path 378" d="M367.983,256.665a34.271,34.271,0,0,1-5.283-.421,30.709,30.709,0,0,1-5.044-1.211,15.873,15.873,0,0,1-3.831-1.79l.951-8.582a21.155,21.155,0,0,0,5.97,2.605,25.013,25.013,0,0,0,6.761.975,8.714,8.714,0,0,0,4.543-.975,3.069,3.069,0,0,0,1.584-2.763,2.593,2.593,0,0,0-.659-1.79,6.1,6.1,0,0,0-2.113-1.37,33.529,33.529,0,0,0-4.094-1.368q-6.5-1.844-9.377-4.87a11.1,11.1,0,0,1-2.878-7.977,10.775,10.775,0,0,1,4.094-8.9q4.092-3.263,11.172-3.264a28.169,28.169,0,0,1,6.787.843,20.4,20.4,0,0,1,5.733,2.263l-1.375,8.267a20.1,20.1,0,0,0-5.15-2.132,21.206,21.206,0,0,0-5.573-.816q-5.494,0-5.493,3.474a2.6,2.6,0,0,0,1.241,2.264,19.452,19.452,0,0,0,4.833,1.9q7.132,2.052,10.222,5.081a10.667,10.667,0,0,1,3.09,7.976,11.085,11.085,0,0,1-4.253,9.267q-4.251,3.318-11.858,3.317" fill="#2c5574"/>
    <path id="Path_379" data-name="Path 379" d="M218.855,223.3a20.835,20.835,0,0,0,16.032-7.5H202.823a20.834,20.834,0,0,0,16.032,7.5" fill="#2c5574"/>
    <path id="Path_380" data-name="Path 380" d="M66.583,215.808l33.6,22.428L115.9,215.808H103.2L97.3,224.2l-12.552-8.4Z" fill="#2c5574"/>
    <path id="Path_381" data-name="Path 381" d="M115.662,255.823,82.057,233.395,66.35,255.823h12.7l5.891-8.4,12.552,8.4Z" fill="#2c5574"/>
    <path id="Path_382" data-name="Path 382" d="M212.292,226.088a20.734,20.734,0,0,0-20.8,20.617,20.333,20.333,0,0,0,2.152,9.118h13.619a10.532,10.532,0,1,1,10.06,0h13.619a20.359,20.359,0,0,0,2.151-9.118,20.733,20.733,0,0,0-20.8-20.617" fill="#2c5574"/>
  </g>
</svg>
