{
  "presets": [
    [
      "@babel/preset-env",
      {
        "loose": true,
        "shippedProposals": true
      }
    ]
  ],
  "plugins": [
  	["@babel/plugin-syntax-dynamic-import"],
  	["@babel/plugin-proposal-private-methods", { "loose": true }]
  ]
}