<?xml version="1.0" standalone="no"?>
<!DOCTYPE svg PUBLIC "-//W3C//DTD SVG 20010904//EN"
 "http://www.w3.org/TR/2001/REC-SVG-20010904/DTD/svg10.dtd">
<svg version="1.0" xmlns="http://www.w3.org/2000/svg"
 width="1048.000000pt" height="1048.000000pt" viewBox="0 0 1048.000000 1048.000000"
 preserveAspectRatio="xMidYMid meet">
<metadata>
Created by potrace 1.11, written by Peter Selinger 2001-2013
</metadata>
<g transform="translate(0.000000,1048.000000) scale(0.100000,-0.100000)"
fill="#000000" stroke="none">
<path d="M2529 10322 c-1 -4 -2 -552 -3 -1219 l-1 -1212 215 -124 c118 -69
478 -277 800 -462 322 -186 626 -361 675 -390 50 -29 315 -182 590 -340 275
-159 568 -327 650 -375 83 -48 196 -113 252 -145 87 -50 99 -61 85 -70 -9 -7
-87 -50 -172 -97 -248 -136 -252 -139 -306 -169 -28 -16 -56 -29 -62 -29 -7 0
-200 109 -429 241 -230 133 -431 249 -448 259 -16 9 -325 187 -685 395 -360
208 -673 388 -695 401 -22 12 -134 76 -248 143 -115 67 -212 119 -215 117 -4
-2 -7 -549 -6 -1216 0 -1040 2 -1213 15 -1221 8 -5 134 -77 282 -160 147 -83
270 -155 272 -160 3 -4 -14 -17 -37 -28 -24 -11 -79 -40 -123 -64 -44 -23
-138 -74 -210 -112 -71 -38 -145 -78 -164 -90 l-35 -21 0 -1209 c-1 -791 2
-1212 9 -1221 8 -11 355 -215 545 -322 41 -22 169 -97 750 -432 102 -59 262
-151 355 -205 381 -219 1002 -578 1031 -596 26 -16 33 -16 55 -5 35 19 2057
1187 2223 1284 76 45 140 82 142 82 2 0 28 16 58 35 30 19 57 35 60 35 3 0 45
24 94 53 49 30 97 57 106 60 15 6 16 102 16 1194 0 1121 -1 1189 -17 1199 -10
6 -38 22 -63 36 -183 102 -470 271 -470 278 0 7 175 107 381 218 31 16 81 44
112 62 l57 32 -2 1220 -3 1220 -330 190 c-181 105 -476 275 -655 378 -179 103
-341 197 -360 208 -19 10 -294 169 -610 352 -316 183 -591 341 -610 352 -19
11 -93 54 -165 96 -71 41 -149 86 -172 99 -52 29 -751 433 -845 488 -9 6 -34
20 -55 31 -21 12 -227 131 -458 264 -231 134 -438 253 -460 266 -22 12 -192
110 -377 217 -186 107 -338 192 -339 189z m2810 -7096 c42 -24 101 -57 131
-74 30 -17 126 -71 214 -120 155 -88 158 -90 135 -105 -13 -8 -132 -74 -264
-148 -132 -73 -255 -141 -273 -151 l-32 -18 -280 162 c-154 89 -277 165 -272
169 8 8 52 34 122 72 25 14 133 77 240 140 107 64 197 116 199 116 2 1 38 -19
80 -43z"/>
</g>
</svg>
