<svg xmlns="http://www.w3.org/2000/svg" width="82" height="143" viewBox="0 0 82 143">
  <text id="_" data-name="#" fill="#fff" font-size="120" font-family="HelveticaNeue-Bold, Helvetica Neue" font-weight="700"><tspan x="0" y="117">#</tspan></text>
</svg>
